I0002   Checking package files in directory tests/e0008_1/somepkg/
E0008   Temporary file tests/e0008_1/somepkg/x.snm detected
E0001   Bad character # (0x23) found in file name tests/e0008_1/somepkg/#README# at offset 0
E0001   Bad character # (0x23) found in file name tests/e0008_1/somepkg/#README# at offset 7
I0003   Checking TDS zip archive tests/e0008_1/somepkg.tds.zip
E0008   Temporary file tex/latex/somepkg/blabla.log detected in TDS zip archive
E0026   tests/e0008_1/somepkg/x.snm : file not in TDS or different in TDS and non-install tree
E0026   tests/e0008_1/somepkg/#README# : file not in TDS or different in TDS and non-install tree
E0026   tests/e0008_1/somepkg/README : file not in TDS or different in TDS and non-install tree
