I0002   Checking package files in directory tests/e0011/somepkg/
E0011   Directory tests/e0011/somepkg/ has bad permissions: 0700
E0011   Directory tests/e0011/somepkg/subdir has bad permissions: 0644
E0004   Empty directory tests/e0011/somepkg/subdir detected
