I0002   Checking package files in directory tests/w0008/somepkg/
W0004   tests/w0008/somepkg/CortanaGehWeg-1803.reg: UTF-16 (little-endian) encoding with BOM detected
W0008   Windows file tests/w0008/somepkg/x.bat has Unix line endings
W0008   Windows file tests/w0008/somepkg/y.cmd has Unix line endings
